{
    "IP": "192.168.1.180",
    "open_ports": [],
    "closed_or_filtered_ports": [
        {
            "port": 111,
            "state": "closed"
        },
        {
            "port": 112,
            "state": "closed"
        }
    ]
}